{
  "list|20": [
    {
      "id|+1": 1,
      "username": "huang",
      "add_time": "2018.3.3"
    }
  ],
  "page": 1,
  "next": 2,
  "previous": null,
  "pagesize": 20,
  "count": 68
}
